Kharkov
I/2-SS/Das Reich
II/2-SS/Das Reich
I/3-SS/Das Reich
II/3-SS/Das Reich
III/3-SS/Das Reich
2-SS-Auf./-/Das Reich
2-SS-StuG/-/Das Reich
III/2-SS/Das Reich
IV/2-SS/Das Reich
2-SS-Flak/-/Das Reich
I/4-SS/Das Reich
II/4-SS/Das Reich
III/4-SS/Das Reich
Kharkov
Lyubotin
Kovyagi
Valki
Merefa
Akssjutovka
Borovoje
Konstantinovka
Zid'ki
Severskii Donets River
Mirgorog
N.Vodolaga
Sokolovo
Zmiev
Borki
Taranovka
Andreyevka
Berestovaya River
Staroverovka
Efremovka
Pervomajsky
Krasnograd
Michajlovka
Kegichevka
V.Orel'ka
532/111th Rifle
468/111th Rifle
710/219th Rifle
375/219th Rifle
13th Rifle Brigade
294/184th Rifle
29/8th Guards Cavalry
297/184th Rifle
262/184th Rifle
673/219th Rifle
286/111th Rifle
616/184th Rifle
106th Tank Brigade
97th Tank Brigade
30th Tank Brigade
I/3-SS/Totenkopf
II/3-SS/Totenkopf
I/Thule/Totenkopf
II/Thule/Totenkopf
III/Thule/Totenkopf
I/Eicke/Totenkopf
II/Eicke/Totenkopf
III/Eicke/Totenkopf
I/11/6th Pz.
II/11/6th Pz.
I/4/6th Pz.
II/4/6th Pz.
I/114/6th Pz.
II/114/6th Pz.
I/76/6th Pz.
II/76/6th Pz.
III/76/6th Pz.
298/-/6th Pz.
6/-/6th Pz.
57/-/6th Pz.
138/48th Guards
1000/305th Rifle
1002/305th Rifle
727/219th Rifle
566/160th Rifle
31/8th Guards Cav.
50/13th Guards Cav.
46/13th Guards Cav.
115/8th Cavalry
49/8th Cavalry
201st Tank Brigade
1176/350th Rifle
1178/350th Rifle
1180/350th Rifle
917/350th Rifle
78/25th Guards
29/-/25th Guards
314/4th Guards Mor.
53/25th Guards
179th Tank Brigade
179/179th Tank Brigade
39th Detached Tk. Btn.
1st Detached Btn.
81/25th Guards
73/25th Guards
480/152nd Rifle
4th Guards Tank Br.
288/8th Artillery
206/8th Artillery
253rd Rifle Brigade
195th Tank Brigade
186/62nd Guards
1004/305th Rifle
173/173rd Tank Br.
378.173rd Tank Br.
379/173rd Tank Br.
378/173rd Tank Br.
830/305th Rifle
184/62nd Guards
16/4th Guards
131/62nd Guards
32/19th Rifle
315/19th Rifle
1310/19th Rifle
17th NKVD Rifle Bde.
232/86th Tank Bde.
233/86th Tank Bde.
179th Tank Bde.
86/86th Tank Bde.
90/19th Rifle
38/8th Artillery
IV. Flieger Korps
2nd Air Army
