Tripoli - A Missed Opportunity
Bir El Merduma
Bir El Merouma Airfield
El Agheila
Marsa Brega
Marsa Brega Airfield
Gulf of Sirte
Via Balbia
Maaten Giofer Salt Marsh
Salt Marsh
Salt Marshes
3RHA/SpGp/7Arm [XIII]
4RHA/SpGp/7Arm [XIII]
11H/-/7Arm [XIII]
106RHA/-/7Arm [XIII]
1/KRRC/SpGp/7Arm [XIII]
2/RB/SpGp/7Arm [XIII]
7H/4/7Arm [XIII]
2RTR/4/7Arm [XIII]
2/5/17/6Aus [XIII]
2/6/17/6Aus [XIII]
2/7/17/6Aus [XIII]
Gr. Sirte
1./3(mot)/-/5Le [DAK]
39/-/5Le [DAK]
2./3(mot)/-/5Le [DAK]
