No Match!
20mm AA [AS]
37mm AT [A]
40mm Bofors
Legion Etrangere [A]
Colonial [A]
105mm
150mm H
75mm M [A]
Pz IIIE
Light Cruiser
Carrier
Infantry [A]
Engineer [EA]
Cavalry
BA-10
T-26
Mountain [Am]
Pz IVG
B-17E [L]
Native Troops [m]
P.24
MS.406
Hurricane
He-111H
Fokker F.VII
M16 [S]
25mm M34 [A]
75mm M97/35
M10
105mm M36S
155mm GPF
75mm M97
M7
Strong Point [S]
Blockhouse [S]
Cavalry
Chasseurs [A]
Engineer [EA]
Regular [A]
FF Regular [A]
M8
P.178
Dunkerque BB
Richelieu BC
Suffren HC 
La Galissonaire LC
Le Fantasque DD
B1-bis
H39
M3A1 Stuart
M4A1
M4A1
R35
D1A
S35
Citroen 23
P-107
UE Carrier
Wagon
D.520
MS.406 [Y]
P.633
Caudron C.445M
20mm FlaK38 [AS]
20mm FlaK38Q [AST]
3.7cm PaK36 [A]
37mm FlaK36 [AST]
FlaKPz IV
8.8cm FlaK18
FlaKPz V Coelian
FlaKPz 38(t) [AS]
251/17 GA [ASF]
SdKfz 7/1 [S]
SdKfz 6/2 [S]
SdKfz 10/4 [AS]
FlaKPz IV [S]
5cm PaK38 [AT]
7.5cm PaK40 [AT]
88mm ATG18 [A]
88mm PaK43 [A]
Elefant
Hetzer
JagdPanther
JgdPz IV/48
JgdPz IV/70
JagdTiger
Marder IIIH [A]
Nashorn
PzJgd I [A]
StuG IIIF [S]
StuG IIIG [S]
10.5 leFH18 [AT]
15 sFH18
17 K18
10.5 GH40 [A]
sIG 38(t)H Grille
Hummel
15 NbWf41 [EAT]
Wurfrahmen [EA]
3.7 Inch Mk.I
sIG 38(t)M Bison
15 K39
StuG IIIB [S]
StuH 42 [S]
Wespe
Bunker [S]
Pillbox [S]
SS PzGrenadiere [A]
Cavalry
Engineer [EA]
Grenadiere [A]
Garrison
GJ Infantry [Am]
FJ Infantry [P]
Infantry [A]
Volkssturm
Psw222 [A]
Psw231 6-Wheel
Psw233 [A]
Psw234/1 [A]
Psw234/2 [A]
Psw234/3 [A]
Psw234/4 [A]
Bismarck BB
Scharnhorst BC
Hipper HC
K-Class LC
UDT[a] [A]
Z-Class
Maus
Panther A
Panther D
Panther G
Panther II
Pz 35(t)
Pz 38(t)
Pz 38(t)E
Pz IB
StuH 43 [S]
Pz IIA
Pz IIF
Pz IIIE
Pz IIIG
Pz IIIJ1
Pz IIIL
Pz IIIH
Pz IIIM
Pz IVD
Pz IVF2
Pz IVG
Pz IVH
Pz IVJ
Tiger
King Tiger
250/1 [A]
SdKfz 251/1
Opel Blitz [T]
Wagon
Bf-109E
Bf-109G
Bf-109K
Me-110C
Do-335
Fw-190A
Fw-190D
He-162
Ar-234
Me-262A-1
Ju-87A [E]
Fw-190F
Hs-129B
Ju-188E
Ju-87B [E]
Ju-87D [E]
Ju-87G
Ju-52
6pdr Mk.I
Commando [EP]
Fusiliers [AT]
Hs-123A
Buffalo[a]
Escort Carrier CVE
P-40F
Luftwaffe [A]
Jaeger [A]
Otter AC
40mm Bofors
Kangaroo
Wasp [EP]
Engineer [EA]
Ju-88A
Bedford QL
CMP Carrier
P-40E
Hurricane
B-25D
Dakota
20mm 20/65 [AS]
20mm AA Truck [S]
47mm 47/32
Sem 47/32 [S]
AB43
Sem 90/53
100mm 100/17
149mm 149/40
75mm 75/27
Sem M42L 105/25
Sem 75/18
Fieldworks [S]
Fortification [S]
Mountain [Am]
Bersaglieri [AT]
Engineer [EA]
Infantry [A]
AB41
Littorio BB
Zara HC
Condottieri LC
L6/40
M13/40
M14/41
M15/42
P26/40
SPA Dovunque
Wagon
G.55
G.50
MC.200
MC.205
Re.2000
Re.2005
Ba.88
BR.20
SM.81
M4A1
M8
37mm AT Bunker [S]
M3A1 Stuart
75mm Bunker [S]
105mm Bunker [S]
MG Emplacement [S]
CA 3 Inch
CA 5 Inch
6 Inch 26cwt
VG-33
Hudson Mk.I
Hudson Mk.I
Battle
P.630
B-25J
P-51B
L.R. Desert
Jeep Recon [A]
20mm 20/65 [A]
75mm
Corvette
Patrol Boat[c] [R]
Afghan Infantry [A]
Wagon
MB.152
MC.202
Re.2002
120mm M14
Re.2001 [Y]
Castle CT
MTB [R]
SM.81
SM.84
Paratrooper [P]
Z.1007bis
Warriors [m]
L3/33
Sea Transport
Afghan Cavalry
Tribal
PBJ-1D
Seabees [BA]
Engineer [EA]
Shore Party
Buffalo I
Ba.65
Type 98 Ke-Ni
Battle
F4F-3 [Y]
F-82
CA 6 Inch
CA 8 Inch
Scouts [A]
Me-410A-1
Ju-388K [R]
Sea Transport
M4 Calliope
M4E4R2 Flame [E]
SdKfz 7
Ki-51
Battle
Ba.65
Type 91
LVT(A)-4[a]
Ki-10
Paramarine [P]
Naval Infantry [A]
Ki-3
A2N1 [Y]
CA 10 Inch
CA 12 Inch
A-35
44 Infantry [A]
Infantry [AT]
USMC [A]
P-26
Vildebeest [Y]
Vengeance
Boston III
Croatian [A]
Vengeance
Gauntlet II
Swordfish [Y]
TBD [Y]
20mm Oerlikon [AS]
40mm Bofors
C9/B 40mm
17pdr AT
2pdr AT [A]
6pdr Mk.II
Achilles
Wolverine
25pdr
3inch
5.5 Inch 
7.2 Inch
Bishop
Sexton
CA 12 Inch M
CA 16 Inch
Infantry [A]
Regular [A]
Engineer [EA]
Commando [EP]
SA Regular [A]
Gurkhas [Am]
Home Guard
Regular [A]
Regular [A]
Paratrooper [P]
Regular [A]
Marine [A]
AEC I
AEC II
AEC III
Daimler Mk.II
Humber Mk.II
Humber Mk.IV
Daimler SC
Staghound I
King George V BB
Renown BC
Country HC
Leander LC
Illustrious CV
Tribial DD
Centurion
Challenger
Churchill III
Churchill IV
Comet
Cromwell IV
Cromwell VI
Cruiser I
Crusader I
Crusader II
Crusader III
M3 Grant
Stuart I
Sherman III
Stuart V
Matilda II
Firefly IVC
Valentine III
Valentine XI
Mk.IV LT
Bedford QL
Bren Carrier
Engineer [EA]
Hurricane
M3A1
Spitfire I
Spitfire IX
Spitfire V
Spitfire XII
Spitfire XIV
Mosquito IV
Tempest II
Sea Fury [Y]
Mosquito VI
Tempest V
Typhoon IB
Dakota
M3 105mm AA
M1A1 90mm
M15A1
M16 [S]
M5 3 Inch [A]
M3A1 37mm [A]
M1 57mm [A]
M10
M18
M3 GMC [S]
M36
M2A1 105mm
155mm G M18
75mm M97 [A]
M1 8 Inch
M12 155mm GMC
M4/105 [S]
M7
M8
T19 HMC
20mm AA [AS]
M3A1 Stuart
Engineer [EA]
Mountain [Am]
42 USMC [A]
Reserves
Paratrooper [P]
Ranger [Am]
Armored [A]
M20
M24
M8
White SC
Iowa BB
Baltimore HC
Brooklyn LC
Essex CV
Yorktown CV
Fletcher DD
M1 Light
M2A4
M5A1
M26
M29
M4A1
M4A1/76
M4A3
M4A3E2
M4A3E8/76
P-40E
GMC 6x6
M3A1
Sea Transport
P-35
P-38F
P-63
P-38L
P-40E
P-47B
P-47C
P-47M
P-51B
P-51D
P-51H
P-80A
A-20B
A-26
B-25C
Mosquito VI
B-25J
B-26B
A-20G
B-25H
C-47
85mm ZP obr 39
37mm ZP obr 39 [S]
76.2mm ZP obr 38
45mm PTP obr 32 [A]
76.2mm PTP obr 27 [A]
ISU-122 [S]
ISU-152 [S]
SU-100 [S]
SU-152 [S]
SU-76 [S]
SU-85 [S]
122mm G obr 10/30
152mm GP obr 37
76.2 P obr 02/30 [A]
Engineer [EA]
2pdr AT [A]
BM-8 [E]
BM-31-12 [E]
SU-122 [S]
40mm Bofors
17pdr AT
M.H. Mk.II
Type 99 88mm
Cavalry
Engineer [EA]
Conscript [A]
NKVD [A]
Guards Cavalry
Guards [A]
Naval Infantry [A]
Paratrooper [P]
Regular [A]
BA-10
BA-6
Battleship
AMTRAC[a]
Sea Transport
F4U-4 [Y]
BT-2
BT-5
IS-2
IS-3
KV-1A
KV-1B
KV-1C
KV-2
KV-85
T-26S
T-34/76A
T-34/76B
Matilda II Frog [ES]
T-34/76C
T-34/85
T-60
T-70
ZIS-5
Wagon
SB-2
Yak-7
La-5FN
La-7
La-9
LaGG-3
I-16
MiG-3
IP-1
Yak-9
Boston III
Il-10
Il-2
Il-2m3
Li-2
Sea Transport
Sea Transport
Sea Transport
Sea Transport
Sea Transport
Sea Transport
Mk.IV LT
Soldati DD
Psw263
Carrier
Bf-109B
20mm Oerlikon [AS]
Heavy Cruiser
25pdr
25pdr Baby [P]
18pdr [A]
Beaufighter
Beaufort
Commando [EP]
Churchill VIII
MG Emplacement [S]
Ford F60
M4 Bridging [BR]
BR-17 210mm
Sea Transport
75mm Bofors AA
Marine [A]
Hawk III
Vickers Pom-Pom [S]
Dakota
BT-5
Daimler SC
Hudson Mk.I
Bren Carrier
BT-7
F8F [Y]
Militia
Guards [A]
H35
Rifle [AT]
Sea Transport
75mm M17
Fw-190A
BA-6
76.2 P obr 36
Truck 5t
Regular [A]
D2
Guerrilla [m]
25pdr
Hawk 75
2pdr AT [A]
7.5cm PaK97/38 [AT]
6pdr Mk.I
P-40E
Hurricane
Crossley AC
AFI Infantry
Type 95 75mm FG
Sea Transport
North Carolina BB
Valentine Bridging [BR]
MTB [R]
White Russian
Death Squad [A]
ZIS-5
P-400
Wagon
2pdr AT [A]
Cavalry
Zuiho CVL
Fuso BB
Pz IVF1
Bf-109F
Me-110D
Badger [E]
90mm 39/41
Sem M43 75/34 [S]
210mm 210/22
Sem 105/25
Paratrooper [P]
Archer
PB[c] [R]
25pdr
ISF Infantry
122mm G obr 10/30
Hurricane IIB
Motorcycle
Staghound III
Blenheim
Radar Bunker
DUKW[a]
AVRE [E]
Regular [A]
AVRE [E]
Wagon
Guerrilla [m]
Hawk 75
Churchill VII
Su-Ki[a]
Submarine
Cromwell I
P1Y Ginga
Sentinel III
B-25D
Blenheim
Cruiser II
Spitfire XIII
Vought 93S
A6M2-N
Corsair I [Y]
75mm L34 [A]
Valentine III
Sea Transport
Valentine CS [ES]
Wapiti
M1 40mm AA [A]
Raider [Am]
Ho Ni I [S]
Ho Ni II
Type 5 Chi-Ri
M1 8 Inch H
M37
Queen Elisabeth BB
M7B1
T30 HMC
M3 Grant
Type 88 75mm
M3A1 Stuart
M3 Stuart
A-36
P-40N
F6F-5 [Y]
GAZ/20Q [S]
V2 Rocket
BM-13-16 [E]
Buckley DDE
Vengeance
MG Regiment [AS]
AA Cruiser [RS]
BT-7
I-15
Churchill III
T-26
Grant
B-26B
P-66
P-36
Hind
Liberator [L]
Persian Cavalry
Indian [A]
Yak-3
P-40 Warhawk
Fury
Nisr
AB40
Blenheim
Cavalry
40mm Bofors
Blenheim
Destroyer
6pdr Mk.I
8.8cm FlaK36
Marine [A]
Do-217E
White Russian
Cr.Mk.V Bridging [BR]
Militia
Paratrooper [P]
CMF
M1A1 75mm M8 [PT]
M3 105mm [PT]
Wagon
37mm 37/45 [A]
Tetrarch [P]
Cavalry
Mountain [Am]
Type 94 75mm [A]
Paratrooper [P]
149mm 149/13
75mm Bofors AA
Bridging [BA]
Bridging [BR]
Do-17
B-18
M13 [S]
Regular [A]
Gladiator IA [Y]
Kamikaze [RY]
Wagon
Engineer [EA]
10.5 leFH18
FH-1 [Y]
Ki-27 Setsu
Ki-30
Ki-43-I Hayabusa 
Ki-21
Fw-190G
Brueckenleger IV [BR]
Bofors 75mm
Type VII
20mm AA [AS]
25mm Hotchkiss M34 [A]
P-40B
Infantry [A]
Morris 6x4
Kaidai Class
50mm IG [A]
Vickers AC
Militia
Infantry [A]
Vickers 6t
Vickers Mk.V
Sea Transport
Reserves
37mm AT [A]
I-16
Type 91
Regular [A]
Commando [EP]
Type 41 75mm [A]
Type 38 75mm
Type 11 75mm
Mustang
Sea Transport
RCMP
Type 88
Matilda II
Engineer [EA]
Daimler Mk.II
3.7 Inch Mk.I
Bren Carrier
Sea Transport
Infantry [A]
75mm M02
B-339D
Fokker D.XXI
Martin 139
DAF M39
Landstorm
Colonial [A]
105mm FH
Wagon
Engineer [EA]
105mm
Wagon
Guards [A]
Cavalry
Militia
Paratrooper [P]
Bren Carrier
Kikka
Bedford QL
Ford F60
Montagnards [m]
Sea Transport
Indonesian [m]
Marine [A]
25pdr
7.5cm GebG36 [A]
A5M Kansen [Y]
Engineer [EA]
3.7 Inch Mk.I
15cm sFH13 Lorraine
Vickers 6t
FT-17M
He-111H
Me-210
Mosquito IV
Wagon
LeO 451
Warlord
Type 4 Chi-To
Algeriens [Am]
L3/33
M11/39
B6N Tenzan [Y]
P-40F
Matilda CS [ES]
Shock Troops [A]
Light Cavalry
Vickers 6t
Sea Transport
Meteor
75mm L34 [A]
M5A1
SB-2
Engineer [EA]
B-24 [L]
Spica TB
Minefield
Sea Mines
Colorado BB
L-3 [R]
Persian Infantry [A]
D.500
Hudson Mk.I
BA-10
CKD AF-IV
Paratrooper [P]
D4Y1 Suisei [Y]
Ki-100 Goshiki
SB2C [Y]
47mm PAG
37mm AT [A]
Cavalry
Cavalry
Cavalry
Beaufort
Wirraway
20mm AA [AS]
B5N Kankoh [Y]
Beaufighter
40mm Bofors
DB-8
M3 Grant
43 Regular [A]
Ki-54
Guards [A]
D3A Kanbaku [Y]
CV33
T-26
IT-28 [BR]
6pdr Mk.I
20mm AA [AS]
20mm Oerlikon [AS]
40mm AA
MG Emplacement [S]
BA-10
Spitfire IX
Avenger I [Y]
T-28
Type 97
Vickers Mk.V
Firebrand IV [Y]
Type 94
75mm Skoda
37mm AT [A]
Psw222
Ki-27 Setsu
F4U-1 [Y]
P-43
Vultee V-11
P-43
A6M3 Reisen [Y]
A6M5 Reisen [Y]
TK 6
F2A [Y]
Volksgrenadiere
Gladiator IIA
F4F-4 [Y]
SBD [Y]
D1A [Y]
BA-6
F7F [Y]
Achilles
Spitfire V
F6F-3 [Y]
Kromhout T-3VB
M3 Grant
VCL M1931[a]
VCL Mk.VI
Bogue CVE
Hawk II
Ki-45 Toryu
B-29 [L]
Type 94 75mm [A]
Spitfire I
Cr.42
Ki-61 Hien
A7M Reppu [Y]
J2M Raiden
N1K1-J Shiden
SM.79
Hawk 75
Gladiator IA [Y]
Bridging [BR]
Type 2 Ka-Mi[a]
MTB [R]
Gato Class
Kongo BC
P-39D
Ta-152H
P-36
Hurricane IIA
Ki-21
He-111E
C-47
Boomerang
S-Class
MB.210
I-15
G3M Chokou
L3Y
Minesweeper [E]
Pe-2
LVT(A)-1[a]
P-39D
Me-110E
G4M Hamaki
Tu-2
Ki-67 Hiryu
SPA CL39
TBF [Y]
Motorcycle
Engineer [EA]
He-51
Vengeance
Ki-102
Churchill VI
Engineer [EA]
Henschel 33A
3.7cm Pak36 [A]
75mm M08
Yamato BB
Furutaka HC
Kuma LC
Akagi CV
Fubuki DD
Type 94 Tankette
Type 97 Te-Ke
Type 95 Ha-Go
Type 94 120mm
Type 2 Ke-To
Type 89A Chi-Ro
Shinhoto Chi-Ha
Type 1 Chi-He
Type 97A Chi-Ha
Type 2 Ho-I
Ho-Ro
Type 1 37mm [A]
Type 1 47mm
Type 90 75mm
Type 92 Osaka
Type 87
Ho-Ha
Type 97
Type 96 25mm [AS]
Infantry [A]
Engineer [EA]
Cavalry
Marine [A]
Type 14 105mm FG
Type 38 75mm
Type 38 120mm H
Type 92 Tankette
Type 3 Chi-Nu
A6M2 Reisen [Y]
Ki-44 Shoki
Ki-30
Ki-43-I Hayabusa 
Ki-48
Ki-84 Hayate
Ho Ri II
Minefield
Watch Tower [S]
M10
Ju-52
Valentine CS [ES]
3.7 Inch How [P]
4.5 Inch
6 Inch 26cwt
Buffalo I
River F
Matilda CS [ES]
Crusader II
Mk.VI LT
LP 20mm GC
20mm AA [AS]
Wolverine
Lynx
Mk.VIII LT [P]
Ram I
Ram II
CMP FAT
20mm AA Truck [S]
Type 11 75mm
Type 4 75mm
Type 93 MG [AS]
Type 96 MG [AS]
Type 98 20mm [AS]
Year 10 120mm
Ho Ni III [S]
Type 11 37mm IG [A]
Type 94 37mm [A]
Type 97 20mm [PS]
SS-Ki Bridging [BER]
SS-Ki [E]
Type 4 150mm
Type 90 75mm
Type 91 105mm H
Type 92 105mm FG
Type 92 70mm IG [A]
Type 96 150mm H
Type 99 10cm [A]
Year 3 140mm SG
J8M1 Shusei [R]
Ki-43-II Hayabusa 
Ki-43-III Hayabusa 
N1K2-J Shiden
Type 92 6-Wheel
Type 93 Sumida
A6M7 Reisen [Y]
B7A [Y]
D4Y3 Suisei [Y]
H6K5 [L]
H8K2 [L]
Ki-32 [R]
Ki-49 Donryu
Ka-Chi[a]
Type 3 Ke-Ri
Type 4 Ke-Nu
Type 89B Chi-Ro
Type 92 CC
Type 94 Tankette
Type 97 Te-Ke 7.7mm
Type 97B Chi-Ha
Ka-Tsu[a]
3 Inch 20cwt
3 Inch AA Rockets
4.5 Inch AA
Crusader III AA Mk.I [S]
Crusader III AA Mk.II [S]
Polsten 3x20mm [S]
Staghound AA [S]
29mm Bombard [PT]
Archer
T48 57mm
Tortoise
18pdr [A]
3.7 Inch How [P]
4.5 Inch
60pdr Mk.I
Land Mattress [EA]
Sexton
Airacobra I
Bulldog
Corsair I [Y]
Defiant
Demon
Fulmar [Y]
Fury
Gladiator IIA [Y]
Hellcat III [Y]
Mohawk IV
Hurricane IIB
Kittihawk III
Martlet [Y]
Blackburn Roc [Y]
Spitfire II
Thunderbolt II
Vampire
Barrage Balloon
Staghound II CS
Mogami HC
Myoko HC
Nagato BB
Takao HC
Tone HC
Hiryu CV
Ise CV
Shokaku CV
Taiyo CV
Unryu CV
Agano LC
Asashio DD
Katori LC
Minekaze DD
Nagara LC
Shiratsuyu DD
Yugumo DD
Kaiten
Type A
Type B
Type D
Morris CS-9
Rolls-Royce AC
Admiral BC
Nelson BB
Courageous CV
Tracker CVE
A-Class DD
Battle DD
C-Type LC
Dido LC
Fiji LC
Flower CT
H-Class DD
Hunt DDE
River F
Town LC
T-Class
U-Class
X-Class
Albacore [Y]
Avenger I [Y]
Barracuda [Y]
Catalina
DB-8
Halifax [L]
Hurricane IIC
Hurricane IID
Hurricane IV
Lancaster [L]
Liberator [L]
Skua [Y]
Sunderland [L]
Whirlwind
Black Prince
Cavalier
Centaur I
Centaur III
Centaur IV
Churchill I
Churchill II CS [S]
Churchill V
Covenanter
Covenanter CS [S]
Cruiser CS [S]
Cruiser II
Cruiser II CS [S]
Cruiser IV
Crusader CS [S]
Matilda I
Mk.II LT
Mk.VI LT
Mk.II M
M4 DD[a]
Stuart III
Valentine
Valentine IX
Valentine VIII
Morris C8
20mm Oerlikon [AS]
M1 120mm
M19 Duster
M1A2 37mm AA [A]
M3 3 Inch
M51 MMGC [AS]
M3A1 Satan [E]
POA-CWS 75-H1 Flame [E]
T15 57mm RR [PT]
T21 75mm RR [PT]
T28
T32 37mm [PT]
155mm H M18
M1A1 H 155mm
M1 4.5 Inch
M1A1 155mm
M40 155mm HMC
M43 8 Inch SP
F3F [Y]
P-12E
P-38E
P-38J
P-59
P-6E
M3A1 White 37mm
Motorcycle
Alaska BC
Nevada BB
New Mexico BB
Northampton HC
Pennsylvania BB
South Dakota BB
Tennessee BB
Independence CVL
Lexington CV
Sangamon CVE
Butler DDE
Cleveland LC
Evarts DDE
Farragut DD
Mahan DD
Benson DD
Wickes DD
Balao Class
S-Class
A-17
B-10B
B-25A
B-25B
B-25G
B-26A
B-26G
Airacobra I
P-39N
P-39Q
P-47D
P-47N
PBY
M2 Medium
M22 Locust [A]
M3 Stuart
M4 DD[a]
M4 Sherman
M45
M4A4
Mustang
Mules [m]
Mules [m]
White APC
Staghound I
Lynx
Native Troops [m]
4.5 Inch
3.7 Inch How [P]
5.5 Inch
Beaverette
Ranger [Am]
AA-MG [AS]
AA-MG [AS]
AA-MG [AS]
AA-MG [AS]
AA-MG [AS]
Jeep Recon
M3A1
Stuart
Type 22
Martin 139
Pz IA
VCL Carrier
12.7mm Mle 30 [AS]
20mm M39O [AS]
25mm M38 [AS]
47mm M39
75mm Mle 32
8mm mle 14 [AS]
AC de 25 CA [S]
AC de 75 13/34
Camion de 13.2 [S]
Camion de 20 CA [S]
Camion de Mitr. CA [S]
37mm M16 TR [A]
47mm Laffly 15TCC
47mm M37 APX
W-15 TCC
105mm M13S
105mm M28
105mm M35B
155mm M17S
194mm SC
220mm L M17 S
65mm M06M
75mm M28 [A]
ARL v939
C.714
D.500
Bridging [BA]
Mountain [Am]
Cavalry [A]
Light Infantry [AT]
Resistance [m]
Marine [A]
20mm AA[x] [AS]
20mm AA [AS]
40mm AA[x]
40mm AA
37mm AA[x]
Infantry [A]
37mm AT[x] [A]
57mm AT[x]
2pdr AT[x] [A]
75mm AT[x]
75mm Mle 1897
25pdr
75mm[x] [A]
20mm AA[x] [AS]
20mm AA [AS]
40mm AA[x]
40mm AA
37mm AA[x]
Mercenaries [A]
37mm AT[x] [A]
57mm AT[x]
2pdr AT[x] [A]
57mm AT[x]
75mm Mle 1897
25pdr
75mm[x] [A]
20mm AA[x] [AS]
Militia
37mm AA[x]
M2A1 105mm
37mm AT[x] [A]
50mm AT[x]
75mm[x] [A]
Senegalais [Am]
Zoaves [A]
10.5cm FlaK38
20mm FlaK30 [AS]
37mm FlaK43T [AT]
37mm Truck [AS]
37mm FlaK18 [AST]
37mm FlaK43 [AT]
5cm FlaK41 [AT]
75mm Truck
88mm FlaK41
FlaKPz IV
sWS 3.7 FLAK43
FlaKPz IV [S]
SdKfz 251/21 [AS]
Fliegerfaust [AS]
FJ 10.5 LG42 [P]
128mm PaK44
FJ 28mm sPzB 41 [PS]
4.2cm PaK41 [A]
4.7cm PaK(t) [A]
7.5 leIG18 [AS]
FJ 7.5 LG40 [P]
76.2mm PaK36 [A]
88mm RW43 [A]
8cm PAW 600 [A]
X-7 Infantry [PS]
ZgKw 12T 88mm
JgdPz 38(t) [A]
Marder I [A]
Marder II [A]
Marder IIIM [A]
SdKfz 122 [E]
SdKfz 141/3 [E]
PzSelb IIK [A]
RSO 7.5 PaK40 [A]
SdKfz 7 37mm
SdKfz 10/5 50mm [A]
SdKfz 250/11 [A]
SdKfz 250/8 [A]
SdKfz 251/10 [A]
SdKfz 251/16 [EA]
SdKfz 251/22 [A]
SdKfz 251/9 [A]
SdKfz 6 Diana
StuG 851(i) [S]
StuG IV [S]
StuG IIIF/8 [S]
StuG IIIE [S]
21 NbWf42 [EAT]
21cm K39
21cm M18
28/32 NbWf41 [EAT]
30 NbWf42 [EAT]
7.5 leFK18
7.5cm leFK 16nA
GSW 39H(f)
SdKfz 251/2M 8cm [A]
SdKfz 4/1 [EA]
sIG IB [A]
sIG II [A]
sIG33 HIG [A]
StuG 853(i)
Sturmtiger
Ar-65
Ar-68
Bf-109C
Bf-109D
Me-110G
Fw-56
Ju-88C-1 HF
Me-163 [R]
Me-410B-2 HF
P.1101
Ta-183
Brandenburger [EP]
Bridging [BA]
Military Police [AT]
SS Jagdverband [EP]
Kriegsmarine [A]
Ostbattalion
RAD [BA]
SA Militia
SS Engineer [EA]
SS-VT Infantry [A]
SS-VT Cavalry
SS-VT Engineer [EA]
Kfz 13
Psw221 [A]
Psw231 8-Wheel
Psw232 6-Wheel
Psw232 8-Wheel
Pz IIL [A]
SdKfz 251/23 [A]
Deutschland BB
Deutschland HC
T-Class TB
Biber
Molche
Seehund
Type IX
Type XXI
Fw-58
He-111B
Bf-109E1-B
He-115
He-177A [L]
He-70 [R]
Hs-129A
Ju-52/3M
Ju-86D
Ju-87R
Me-262A-2
Panther F
Pz 736(f)
Pz 740(f)
klB I
Pz IA
Pz IID
Pz IIIF
Pz IIIJ2
Pz IIIN
Pz IVC
sWS
V2 Transport
75mm 75/46
75mm Truck
90mm Truck
75mm Portee
90mm Portee
L3/33 Flame [E]
Sem 149/40
149mm 149/13
75mm 75/13 [A]
75mm 75/18
Cr.42
Cr.32
SAI 207
Albanese
Ascari
CCNN [A]
Bridging [BA]
Carabinieri
Libici
San Marco [A]
Lancia 1Z
Bicycle Recon
Sahariana 20mm
Cavour BB
Duilio BB
Trento Class HC
Aquila CV
Ariete TB
Navigatori DD
Romani LC
Turbine DD
Calvi Class
Marcello Class
Marconi Class
Ca.310 [R]
Ca.313
SM.79 III
Z.501
Ju-87B [E]
P.108 [L]
S35
Fiat 3000
L3/35
L3/35 Breda
R35
Breda 61
Truck 5t
75mm M97
Ford A
Type 88
Ki-3
Sea Transport
Type 87
Type 92 Osaka
Bridging [BR]
Ki-44 Shoki
Ki-27 Setsu
Ki-10
105mm M27
150mm M18
65mm M99
6 Inch L15
8.4cm M81
25mm GAZ [S]
25mm ZP obr 40 [AS]
AA-MG [AS]
GAZ-4M-AA [S]
IAG-10-AA [S]
M1 40mm AA
M1A1 90mm
M1A2 37mm AA
ZIS-42 AA [S]
ZSU 4 [S]
ZSU-1 [S]
ZSU-12 [S]
37mm PTP obr 15R [A]
37mm PTP obr 30 [A]
57mm PTP obr 43 [A]
76.2mm ZIS-3 [A]
ATO-41 Flame [E]
KV-8 Flame [E]
M1 57mm [A]
M3 GMC [S]
OT-130 Flame [E]
37mm Portee
SU-57
107mm P obr 10/30
122mm G obr 38
122mm P obr 31
152mm G obr 38
203mm M1931
76.2 P obr 00/02 [A]
76.2 P obr 36
76.2 P obr 39
85mm P obr 44
B-4 203mm
BR-18 305mm
BR-2 152mm
DI-6
Hurricane IIA
I-15
LaGG-1
MiG-1
P-40G
P-63
Pe-3
Spitfire IX
Yak-1
Bridging [BA]
Partisan [m]
Bridging [BA]
Shock Troops [A]
BA-11
BA-20
BA-3
BA-64 [A]
FAI
M3
Kirov HC
Maxim Gorky HC
Petropavlovsk BB
Gnevny DD
Krasni Krim LC
Leningrad DD
Il-4
Mitchell
Pe-2FT
Pe-8 [L]
R-10
R-5 [R]
Su-2
Yak-7B
Yer-2
M4A1
M4A1/76
Matilda II
T-28E
T-28M
T-27 [A]
T-35
T-37[a] [A]
T-38[a] [A]
T-34/76D
Valentine
Vickers 6t
Bridging [BA]
ISF Cavalry
Castle CT
Pz IIIH
Light Cavalry
3.7 Inch How [P]
Sentinel I
Demon
Bulldog
Arab Legion [A]
Brazil E.F. [A]
Czech Regular [A]
E.A. Pioneers [EA]
Egyptian
Fijian [A]
Gold Coast [A]
Kenyan [A]
44 African Rifles [A]
Nigerian [A]
Rhodesian [A]
44 Infantry [A]
Paratrooper [P]
SA Commando [ER]
Samoan [A]
Somali CC
SA 44 Regular [A]
Sea Transport
M.H. Mk.II
Czech IAC
Mk.IV LT
Bren Carrier
CX22
Crossley 1.5t
Wagon
18/25pdr Mk.I
18/25pdr Mk.I
18/25pdr Mk.I
18/25pdr Mk.I
4.5 Inch
44 Regular [A]
Light Infantry [AT]
African Rifles [A]
AMC P-16
AMD Laffly 50M
Laffly 80AM
AMR 33
AMR 35
AMR 35 20mm
Laffly S15
Spahi Cavalry
P.178 47mm
P.175
Bearn CV
Duguay-Trouin LC
Jaguar DD
Provence BB
Duquesne HC
Courbet BB
A.143
B.693
DB-8
F.222
MB.174
MB.200
P.63.11
D1B
FCM 36
FT-17BS
FT-17C
H38
R40-1
R40-2
M4A1/76
M4A2
M5A1
M8
FF Engineer [EA]
FF Tirailleurs [Am]
M1 40mm AA [A]
M1A1 90mm
M15A1 GA [S]
M16 GA [SF]
M3A1 37mm [A]
C-47
M2A1 105mm
LST
M1A1 75mm M8 [PT]
Bridging [BR]
Native Troops [m]
Sea Transport
Jeep Recon [A]
M2A1
M8
M3A1 Stuart
M4/105 [S]
M4A1
M4A3
M5A1
M3A1
GMC 6x6
M3 3 Inch
Mack 7.5t
M3 105mm [PT]
Bridging [BA]
Bridging [BA]
SA Light Cavalry
Light Cavalry
H39
Malay Regular
Malay Volunteers
Coastwatcher
Scout
Scout
Sniper [P]
Bridging [BA]
Bridging [BA]
Mountain [Am]
Country HC
Arunta DD
Bathurst CT
N-Class DD
Leander LC
Bogue CVE
Athabaskan DD
Castle CT (Norwegian)
Flower CT
Flower CT
Evarts DDE
Leander LC
Flower CT
Gadila CVE
Admiralen DD
De Ruyter LC
MTB [R]
Tromp LC
K-Class
O-Class
Zwaardvis Class
Fokker G.I
M-36
M-38
Motorcycle
Fokker T.V
Fokker T.VIII
B-25C
Bridge [B]
SS-Tei
70mm 70/15
75mm 75/13 [A]
7.5 leIG18 [S]
76.2mm PTP obr 27
M1A1 75mm M8 [A]
7.7cm FK16
18pdr [A]
105mm 105/28
M2A1 105mm
122mm G obr 38
M3A1 37mm [A]
Guerrilla [m]
Staghound I
Staghound I
M.H. Mk.III
M4A2
Foot [A]
National Guard
Regular [A]
Bridging [BA]
M4 Tractor
M3 GMC [S]
White SC
AA-MG [AS]
155mm G M18
155mm H M18
M2A4
M3 Stuart
M8
M7
DUKW[a]
M4A2
M1A2 37mm AA [A]
M51 MMGC [AS]
Scout
Scout
PBJ-1J
Hopei Regular
Hunan Regular
Kwangsi Regular
Kwangtung Regular
Kweichow Regular
Manchurian
Shansi Regular
Shantung Regular
Szechuan Regular
Yunnan Regular
Muslims
MNF Regular
MSF Regular
Mules [m]
Wagon
Obstacle
44 USMC [A]
Gratis HC
Rolls-Royce AC
Mk.VI LT
Mk.II LT
Mk.IV LT
Mounted Scout
Mules [m]
Motorised Cavalry
M3 Stuart
M3 Grant
Sherman V
18pdr [A]
Sexton
4.5 Inch
3.7 Inch Mk.I
ACV-IP
5.5 Inch
C9/B 40mm
Audax
Dakota
Sea Transport
Hurricane IIC
Lysander [R]
Spitfire VIII
Spitfire XIV
Tempest II
20mm Oerlikon [AS]
25pdr AT [S]
Hurricane IV
Hurricane IV
Morris C8
Cavalry
Vickers MG [AS]
2pdr Portee
6pdr Portee
3 Inch Mortar [PT]
13pdr
60pdr Mk.I
AA-MG [AS]
Ford F30
Bangor MS [E]
24 Class Sloop
Scout
Artillery Barrage
88mm AT
Pz 35(t)
Pz 38(t)
StuH 43 [S]
Pz IIA
Pz IIF
Pz IIIG
Disabled Tank
Pz IIIL
Pz IIIH
Pz IIIM
Pz IVD
Pz IVF2
Pz IVG
Pz IVH
Pz II Flame [E]
Pz III Flame [E]
Pz IA
Pz IB
Tiger
10.5cm FlaK38
20mm FlaK30 [AS]
20mm FlaK38 [AS]
20mm FlaKv38 [AST]
251/17 [AS]
37mm Truck [AS]
37mm FlaK18 [AST]
37mm FlaK37 [AST]
5cm FlaK41 [AT]
75mm Truck
8.8cm FlaK18
8.8cm FlaK36
SdKfz 10/4 [AS]
SdKfz 6/2 [S]
SdKfz 7/1 [S]
FJ 10.5 LG42 [P]
FJ 28mm sPzB 41 [PS]
3.7cm PaK36 [A]
4.2cm PaK41 [A]
4.7cm PaK(t) [A]
5cm PaK38 [AT]
7.5 leIG18 [AS]
FJ 7.5 LG40 [P]
7.5cm PaK40 [AT]
7.5cm PaK97/38 [AT]
76.2mm PaK36 [A]
88mm AT
88mm ATG18 [A]
JgdPz 38(t) [A]
Marder I [A]
Marder IIIH [A]
PzJgd I [A]
PzSelb IIK [A]
SdKfz 7 37mm
SdKfz 10/5 50mm [A]
SdKfz 250/11 [A]
SdKfz 250/8 [A]
SdKfz 251/10 [A]
SdKfz 251/16 [EA]
SdKfz 251/9 [A]
SdKfz 6 Diana
StuG IIIB [S]
StuG IIIE [S]
StuG IIIF [S]
StuG IIIF/8 [S]
StuG IIIG [S]
StuH 42 [S]
Ju-52
10.5 GH40
10.5 leFH18 [AT]
15 K 18/39
15 NbWf41 [EAT]
15 sFH18
15cm sFH13 Lorraine
17 K18
21cm K39
21cm M18
28/32 NbWf41 [EAT]
7.5 leFK18
7.5cm GebG36
7.5cm leFK 16nA
Pz 736(f)
SdKfz 251/2M 8cm [A]
Ju-87D [E]
sIG IB [A]
sIG II [A]
sIG33 HIG [A]
Wespe
Wurfrahmen [EA]
Brandenburger [EP]
Bridging [BR]
Bridging [BA]
Paratrooper [P]
Military Police [A]
Luftwaffe [A]
Mountain [Am]
Grenadiere [A]
Garrison
Infantry [A]
Jaeger [A]
Engineer [EA]
Pz IVF1
250/1 [A]
Motorcycle
Psw221 [A]
Psw222 [A]
Psw231 8-Wheel
Psw232 6-Wheel
Psw232 8-Wheel
Psw233 [A]
Psw263
SdKfz 251/1
SdKfz 250/1
SdKfz 7
Opel Blitz [T]
Wagon
Sea Transport
Me-110E
Me-210
Bf-109E
Bf-109F
Bf-109G
Ju-88A
Fw-190F
Do-17
Hs-129A
Ju-87R
Ju-87G
Ju-87B [E]
Constabulary
Reserves
155mm M18
M2A1 105mm
37mm M1916 [A]
3inch
M1A1 75mm M1 [A]
M3 3 Inch
M1A2 37mm AA
P-26
B-10B
Albanian [Am]
Bn Narwa [A]
Charlemagne [A]
Cossacks
Croat Legion [A]
Croatian HA
Denmark Freikorps [A]
Azul Infantry [A]
Finn Jaeger Bn [Am]
Flanders Legion [A]
Slovak Hlinka Guards [A]
Indian Legion [A]
Indian NA [A]
K.O.N.R.
Lithuanian Police [A]
LVF
Guards [A]
Dutch Legion [A]
R.O.N.A.
Reg Nordland [A]
Ski Bn Norge [A]
Slovak Regular [A]
44 Regular [A]
LTvz35
Pz IB
Baffin [R]
Catalina [R]
Dauntless [Y]
Vincent [R]
Catalina [R]
Avro Anson [R]
KDA-2 [R]
H.43 [R]
Fw-189 [R]
Fi-156 [R]
Fi-156 [R]
Fi-156 [R]
Fi-156 [R]
Lysander [R]
Norseman [R]
L-3 [R]
Ro.37 [R]
Recon Plane [RY]
Vought 93S [R]
Br.XIX [R]
O-46 [R]
Do-24 [R]
M2A1
Ki-9 [R]
R-5 [R]
PBY [R]
Ju-388L [R]
SBD Scout [RY]
A-24
B-10B
Cavalry
Light Cavalry
Engineer [EA]
2pdr AT [A]
2pdr Portee
6pdr Portee
Morris C8
3 Inch Mortar [A]
Motorised MG
Pz IIIJ1
ZIS-30 [A]
L3 Bridging [BR]
AB611
20mm FlaK30 [AS]
37mm Md.39
8.8cm FlaK36
37mm M36 [A]
47mm M37
75mm 97/38
75mm M40
Maresal
R35 TD
TA [S]
TACAM R2
TACAM T-60
10.5 leFH18
100mm Skoda
155mm M36
210mm H M16
21cm M16
75mm Skoda [A]
75mm FG M03
75mm M97
Bf-109E
Bf-109G
He-112
Hurricane
IAR 80
P.11
P.24
Border Guard
Cavalry
Engineer [EA]
Infantry [A]
Iron Guard [A]
Mountain [Am]
Motorcycle
Psw222
Tatra T-72
Blenheim
He-111H
IAR 81
Ju-87B [E]
Ju-87D [E]
Ju-88A
P.633
P.23
SM.79B
IAR 39 [R]
FT-17
R2
R35
T-3
T-38
T-4G
Malaxa Carrier
Tatra 27
Wagon
40M Nimrod
40mm 37M
80mm 38M
37mm 36M [A]
Hetzer
40mm 40M
50mm 38M
75mm 40M
75mm 97/38M
76.5mm 18M
StuG IIIG [S]
Zrinyi I [S]
Zrinyi II [S]
100mm H
105mm FG
105mm H
149mm H
150mm H
210mm H
75mm 15/31
75mm M15 [A]
76.5mm 5/8
84mm H
Bf-109F
Bf-109G
Cr.32
Cr.42
Re.2000
Arrow Cross
Border Guard
Bridging [BA]
Cavalry
Fusiliers [AT]
Militia
Mountain [Am]
Paratrooper [P]
Engineer [EA]
Regular [A]
Csaba
Mounted Scout
Ca.101
Ca.135
Ca.310
Fw-190F
Fw-58
Ju-86K
Ju-87B [E]
Ju-88A
Me-210
Fi-156 [R]
CV35
Toldi I
Toldi II
Toldi IIA
Turan
Turan II
IVM G
Pz IB
Pz 38(t)
Raba 3.5t
Wagon
20mm AA [AS]
88mm M37
37mm M36 [A]
T-III [S]
Ju-52
100mm M16/19 [A]
105mm D/28 M18
150mm M18
75mm M15 [A]
Avia B.135
Avia B.534
Bf-109E
Bf-109G
D.520
Cavalry [A]
Engineer [EA]
Frontier Guard
Paratrooper [P]
Regular [A]
Sea Transport
Steyr 1500
Psw222
Avia B.71
Fw-58
Ju-87D [E]
S.328
CV33
H39
T-11
T-IV
Pz IIIH
Pz 38(t)
R35
T-34/85
T-V
Vickers 6t
Opel Blitz
Wagon
Norwegian Cavalry
Norwegian Regular [A]
Norwegian Engineer [EA]
Norwegian Militia
Norwegian Ski Infantry [A]
Greek Cavalry
Greek Engineer [EA]
Greek Euzone [A]
Greek Infantry [A]
Greek Mountain [Am]
Guerrilla [m]
Danish Hussars
Danish Pioneer [EA]
Danish Regular [A]
Belgian Cavalry
Belgian Chasseurs [A]
Belgian Engineer [EA]
Belgian Grenadiers [A]
Belgian Infantry [A]
Disabled Car[rx]
Obstacle[c]
20mm Q AA Car[r]
105mm AD Car[r]
MG34 [S]
MG08 [S]
MG42 [S]
Pz 38(t)
Infantry
Flamethrower [E]
75mm PaK
20mm FlaK30 [S]
3.7cm PaK36
7.5 leIG18 [S]
47mm PaK Car[r]
Armoured Pursuit[r]
8 GrW34
75mm Car[r]
100mm Car[r]
Flat Car[r]
Bicycle Recon [R]
Tank Car[r]
Flat Car[r]
Platform Car[r]
Psw204(f)
Railroad Engineer [B]
Pz 739(f)
Pz38(t) Car[r]
Heavy Scout[r]
Command Car[r] [C]
Box Car[r]
28cm RR Gun[r] [s]
75mm wz.32
37mm wz.37 [A]
105mm A wz.13
100mm H wz.14/19
75mm A wz.02/26
Light Cavalry
Engineer [EA]
Mountain [Am]
Infantry [AT]
Reserves
40 Infantry [A]
7TP
R35
TKS
PF-621L
Wagon
P.24
P.23
P.37B
Wz34
FT-17
220mm M wz.32
120mm H wz.09/31
155mm H wz.17
40mm wz.36
Lanciers
P.11
Sea Transport
Fokker F.VII
Vickers 6t
Avia B.534
Avia B.71
Wz28
C2P
VCL Mk.VI
TKF
TKSB 20mm
Wicher DD
Grom DD
Orzel Class
40mm AA
Light Horse
Light Horse
Light Horse
StuG IIIG [S]
105mm K34
152mm G obr 38
Light Horse
BT-42 [S]
Finland Regular [A]
Finland Sissi [Pm]
Finland Ski [A]
BA-10
BT-7
T-26
Pz IVG
Citroen 23
Staff Carriage
Bf-109G (Finland)
B-239 (Finland)
Fokker D.XXI (Finland)
Blenheim (Finland)
Pz 38(t)E
Psw222
Finland Pioneer [EA]
20mm AA [AS]
Light Horse
Gladiator IIA (Finland) [Y]
MS.406 (Finland)
Vickers 6t
G.50
Ju-88A (Finland)
7.62cm AA
75mm AT
7.5 leIG18 [S]
Finland Cavalry
Finland Jaeger [Am]
Militia
Hawk 75 (Finland)
Bulldog (Finland)
Do-17 (Finland)
Myrsky II (Finland)
Light Horse
Light Horse
Light Horse
10.5 leFH18
Light Horse
Light Horse
Fokker C.X. (Finland)
Light Horse
150mm H
Illmarinen HC (Finland)
Vetehinen Class (Finland)
SB-2 (Finland)
75mm wz.32
105mm C mle13
75mm Mle 1897
7TP
Fiat 621
Wagon
155mm C mle17
40mm wz.36
Vickers 6t
120mm Bofors M14
Ju-52
75mm L34 [A]
47mm PAG
75mm Skoda
M-36
M-38
75mm mle 97/35
105mm Mle 36S
Light Horse
P.178
B1-bis
H39
R35
S35
SFz UE(f)
H35
75mm Mle 32
AC de 75 13/34
105mm Mle 35B
AMR 35
FCM 36
R40-1
3.7 Inch Mk.I
6 Inch 26cwt
40mm AA[x]
2pdr AT[x] [A]
3inch
Matador
Daimler SC
Matilda II
Mk.IV LT
18pdr [A]
Cruiser II
Matilda I
18/25pdr Mk.I
Light Horse
47mm 47/32
149mm 149/40
75mm 75/27
M13/40
AB40
Protze
L3/33
M11/39
Sahariana 20mm
L3/35
AB611
Matilda II
Cruiser II
Light Horse
C9/B 40mm
Light Horse
Light Horse
Daimler SC
M26
Opel Blitz
M3A1 Stuart
Mk.IV LT
Cruiser II CS
Valentine
76.2mm ZP obr 38
76.2mm PTP obr 27
152mm GP obr 37
BA-10
KV-1A
M45
T-34/76A
BT-7
T-26
57mm PTP obr 43
76.2mm ZIS-3
37mm Portee
122mm G obr 38
152mm G obr 38
76.2 P obr 36
Opel Blitz
FAI
3.7cm PaK36 [A]
37mm FlaK37 [S]
8.8cm FlaK18
88mm ATG18
10.5 leFH18
15 sFH18
StuG IIIB [S]
Psw222
Pz 38(t)E
Pz IIF
Pz IIIH
Pz IVF1
Matador
8.8cm FlaK36
7.5cm GebG36 [A]
M1 57mm
M3A1 37mm [A]
40mm Bofors
White SC
Bedford QL
D-4
25pdr
M1A2 37mm AA
M3 Stuart
Daimler SC
C9/B 40mm
6pdr Mk.II
Humber Mk.II
5.5 Inch
7.2 Inch
Humber Mk.II
Crusader II
M3A1 Stuart
Valentine III
CMP GS 4x4
Churchill I
Morris C8
8.8cm FlaK18
88mm ATG18
StuG IIIF [S]
10.5 leFH18
17 K18
StuH 42 [S]
Psw233
Pz IVG
Tiger
ZIS-6
8.8cm FlaK36
StuG IIIE [S]
BA-64
76.2mm ZP obr 38
76.2mm PTP obr 27
KV-1B
Warriors
76.2mm ZIS-3
122mm G obr 38
Dakota
76.2 P obr 36
Einheitsdiesel
SU-152 [S]
SU-76 [S]
Type 94 75mm [A]
Type 95 Ha-Go
Shinhoto Chi-Ha
Matador
Type 14 105mm FG
Type 38 120mm H
Type 4 Ke-Nu
Type 99 10cm [A]
Type 93 Sumida
HQ Detail [AC]
7.5cm PaK40
JgdPz IV/70
PBY [R]
44 Regular [A]
15 sFH18
17 K18
Submarine [R]
Psw233
Panther D
Tiger
Tiger II
Maultier
75mm Truck
17pdr AT
25pdr
4.5 Inch
7.2 Inch
Churchill IV
Cromwell IV
Humber Mk.IV
M5 3 Inch
Regular [A]
M8
M4A3
M4A3E8/76
Pioneer
M3A1 Stuart
M1A1 75mm M8 [PT]
M1A1 H 155mm
Sea Transport
Sea Transport
Ju-52
C-47
Dakota
C-45
C-47
Plane
Bridge [B]
Refinery
Factory
Factory
Hospital
Building
HQ Building [SC]
Disabled Tank
Disabled Tank
Disabled Tank
Disabled Tank
Disabled Tank
Disabled Tank
Heavy Weapons [EA]
AS.51 Horsa
S.328 [R]
L.298
M.115 [R]
Civilians
Bridge [B]
Bridge [B]
Wurfgeraet 41 [E]
DUKW[a]
Landing Craft
AMTRAC[a]
BMW R-71 [T]
MotoGuzzi [T]
Harley WLA [T]
28cm RR Gun[r] [s]
Sniper [P]
Sniper [P]
Re.2005
Re.2002
Entrenched
Entrenched
Entrenched
Dodge VC-1 CC [C]
M3 CC [C]
M5 CC [C]
Stuart
M20 CC [C]
M24 CC [C]
M3/HT CC [C]
Kfz 14 CC [C]
250/3 CC [AC]
PbwII [C]
PbwIII [C]
PbwIV [C]
SdKfz 267 [C]
Duguay-Trouin LC
Sims DD
Suffren HC
Pz IIL 50mm [A]
Pz IIL CC [AC]
13pdr
100mm BS-3
12 sGrW42 [A]
81mm M.36 [A]
Heavy Mortar [A]
81mm M1 [A]
FJ 8 GrW42 [P]
GJ 10 NbW40 [Am]
81mm 36M [A]
81mm 81/14 [A]
81mm M29 [A]
81mm Mortar [A]
81mm M35 [A]
120mm M42 [A]
T25 155mm [A]
4.2 Inch Mortar [A]
81mm Mortar [PT]
4.2 Inch Mortar [A]
BM-8-24 [E]
82mm BM-37 [P]
107mm PBHM-38 [A]
120mm PM-38 [A]
Type 97 81mm [P]
Type 98 120mm [A]
4.2 Inch Mortar [A]
Light Mortar [A]
3 Inch Mortar [PT]
3 Inch Mortar [A]
3 Inch Mortar [A]
81mm M27/31 [A]
82mm Mortar [A]
4.2 Inch Mortar [A]
81mm Mortar [A]
12 sGrW42 [A]
10 NbW40 [A]
FJ 8 GrW42 [P]
8 GrW34 [A]
8 GrW34 [A]
75mm IG[x] [S]
Medium Mortar [A]
Heavy Mortar [A]
Type 96 MG [PS]
Hotchkiss MG [AS]
M35 MG [AS]
M2 .50cal MG [PST]
Vickers MG [PST]
Bren Gun [PS]
Vickers MG [AS]
Bren Gun [AS]
Bren Gun [AS]
Vickers MG [PST]
FJ MG [PS]
GJ MG [ASm]
LMG [AS]
HMG [AS]
LMG [AS]
DSHK38 MG [PS]
G4M/MXY-7 [R]
H8K2 [R]
SBC [Y]
Jeep [T]
CMP FAT
SdKfz 250/1
GAZ-60
STZ-5
Light Infantry [AT]
Motorcycle [AT]
Valentine III
Stuart I
Sherman III
Bedford OYD
Jeep
GMC 6x6
C-K P-17
Maultier [T]
Type 94
T-20
IAG-6
GAZ 1.5t
Type 98 So Da
C4P
Ford G8T
Dodge 3t
Krupp L3H
L6500
Komintern
C7P
RSO
S-60
D-4
CX22
Ford F30
CMP GS 4x4
Q2 GS 30cwt
Hurricane X
Hurricane XII
Catalina
Bolingbroke
Lancaster [L]
Entrenched
Entrenched
Entrenched
Entrenched
Entrenched
Entrenched
Fortified [S]
Fortified [S]
Fortified [S]
Fortified [S]
Fortified [S]
Fortified [S]
Fortified [S]
Fortified [S]
Fortified [S]
Radar
Matilda CS [ES]
Sherman V
M.H. Mk.II
M.H. Mk.III
AA-MG [AS]
Hotchkiss MG [AS]
Truck 1.5t
HGT
18pdr [A]
3.7 Inch How [P]
Baathists
Bedouin
Pz 38(t)E
StuG IIIB [S]
105mm FG
Light Cavalry
Camel Scout
Mountain [Am]
7.5cm PaK40
Pz IIIJ1
Pz IVG
Bf-109G
Me-110C
37mm FlaK18 [S]
37mm FlaK43
149mm 149/40
Re.2000
81mm Mortar [A]
20mm 20/65 [AS]
3.7cm PaK36 [A]
47mm 47/32
40mm M.33 [A]
100mm 100/17
149mm 149/13
65mm 65/17 [A]
75mm 75/27
Ar-68
C4
C4J
C5
Cr.32
He-112
He-51
Navarra [A]
Cavalry
Engineer [EA]
Legionnaire [A]
Militia
Moroccan [A]
Nationalists
Bilbao AC
Lancia 1Z
Psw222
UNL 35
Canarias HC
Espana BB
Alsedo Class DD
Cervera LC
Cueta Class DD
Huesca Class DD
C-1 Class
BR.20
Ba.65
Ca.310
Z.501
Do-17
He-111B
He-70 [R]
Hs-123A
Ju-83/3M
Ju-86D
Ju-87A [E]
Ju-87B [E]
SM.81
FT-17
L3/35
Pz IA
76.2mm ZP obr 38
37mm PTP obr 30 [A]
Ford Trimotor
107mm obr 30
122mm G obr 10/30
155mm C mle17
75mm Mle 1897
Fury
GE-3 Goblin
I-15
I-16
Osprey
Anarchists
Engineer [EA]
Naval Infantry [A]
International [A]
Police
Infantry [AT]
Militia
Seperatists
BA-6
Br.XIX [E]
E-30
Gamma 5B [E]
R-5 [R]
RZ
SB-2
Vildebeest
BT-5
T-26
ZIS-5
Wagon
37mm M.34
7.92mm M.17 [AS]
65mm M.13 [S]
MG08 [AS]
70mm M.08 [A]
150mm M18
155mm M.17
G.50 (Finland)
Bridging [BA]
20mm M.23 [AS]
40mm M.30
7.92mm M.17 [AS]
45mm PTP obr 32
Maxim MG [AS]
70mm M.08 [A]
75mm M.12
76.2mm M.02/30
105mm M.04
114mm M.18
152mm M.37
FAI
Bridging [BA]
Mounted
Gnome Rhone AX2 [T]
Coast Guard
B-17G [L]
114mm M8 RL [EA]
Lanz Tractor
SdKfz 251/1
Famo F3
Tatra 81H
Tatra 26/30
Lo-2000
BN-9
Maultier
KO WKO
Raba 1.5t
SdKfz 11
Trado III
Latil M7TZ
Ko-Hi
ZIS-42
S35
Renault AGC
Protze [T]
Tatra 93
Einheitsdiesel
Dodge T9-K45
White 6x6
M28 Weasel
Shi-Ke
P4-100
P4-100
P4-100
M.H. Mk.III
Lorraine 37L
Pioneer
Praga TH
ZIS-5
M43 Lehel
Bob Semple
Praga AV
Praga AV
Mounted
Mounted
Mounted
Harley WLA [T]
Indian 741 [T]
Rikuo 1200cc [T]
Light Infantry [AT]
Light Infantry [AT]
Light Infantry [AT]
Mounted
Mounted
Cavalry [A]
Mounted
Steyr 1500
Horse Teams
Horse Teams
Horse Teams
Horse Teams
Horse Teams
Horse Teams
Horse Teams
Horse Teams
Horse Teams
Horse Teams
Horse Teams
Horse Teams
Kettenkrad [T]
Kettenkrad [T]
SdKfz 10 [T]
SdKfz 10 [T]
SdKfz 8
SdKfz 8
SS-100
SS-100
Protze [T]
Cavalry [AT]
White APC
Mounted
Recon
D-4
Ja-12
Smoke Screen
Partisan [m]
PF-618
PZInz 302
M5
White APC
DUKW[a]
White APC
Mounted
Cavalry [A]
Guards Cavalry [A]
M-72 Ural [T]
Recon
2pdr Portee
6pdr Portee
2pdr Portee
6pdr Portee
Light Infantry [AT]
BMW R-75 [T]
BMW R-75 [T]
Cavalry [AT]
SS-VT Cavalry [A]
Mounted
Mounted
Hitlerjugend
Bicycle [T]
Bicycle [T]
Bicycle [T]
Mounted
BSA M20 [T]
Bicycle [T]
Cavalry [AT]
Bicycle [T]
Bicycle [T]
Light Infantry [AT]
Norton 16H [T]
Bridging [BA]
Mounted
Light Infantry [AT]
Mounted
Light Infantry [AT]
AS.37 Protetto
Cavalry [A]
Mounted
Zundapp KS600 [T]
Light Infantry [AT]
Ski Infantry [A]
Frogmen[c] [ERP]
Decima Mas[c]
Chariot[c]
Mounted
Citroen
Gendarmes
Cavalry [A]
Light Infantry [AT]
Mounted
Bicycle [T]
M1917 MG [AS]
M1917 75mm
M1917 75mm
Light Infantry [AT]
Bicycle [T]
BSA M21 [T]
Cavalry [A]
BMW R-75 [T]
Bicycle [T]
Light Infantry [AT]
Cavalry [A]
Godzilla[a] [ERSCFm]
CWS M111 [T]
Bicycle [T]
Mounted
Euzkadi
TM40
SS Mountain [Am]
SS Infantry [A]
SS Cavalry [A]
SS Schuetzen [AT]
LSM Rocket [E]
54cm Geraet 041 [s]
54cm RR Mortar[r] [s]
47mm AT Car[r]
76.2mm AA Car[r]
105mm AD Car[r]
75mm AT Car[r]
75mm Car[r]
105mm Car[r]
Command Car[r] [C]
Carrier Car[r]
Flat Car[r]
Platform Car[r]
Tank Car[r]
Hvy Scout Car[r]
Box Car[r]
54cm RR Mortar[r] [s]
Train[r]
T-37[a]
T-26S
BA-3
FAI
BA-20
OT-130 Flame [E]
M-72 Ural [T]
Mounted
T-20
S-60
Horse Teams
76.2 P obr 02/30
122mm G obr 10/30
152mm GP obr 37
12.7mm NSV [AS]
45mm PTP obr 32
Mules [m]
MG Rifle [A]
GAZ-4M-AA [S]
AA-MG [AS]
Camel Troops
Railroad Guard
I-16
Komintern
Type 89B Chi-Ro
NC-27
FT-17M
Type 3 Chi-Nu
Type 1 Chi-He
Ba349 Natter
Monitor
Mixed Brigade [A]
Type 3 MG [AS]
Type 97 81mm [A]
81mm Mortar [A]
Ki-43-III Hayabusa 
GAZ/20Q GA [SF]
PB-105(j) [A]
Crossley 1.5t
8.8cm GA [AS]
Airfield [#]
Airfield [#]
GMC 6x6
Hs-126
MFP
Barge
MFP
AS.51 Horsa
DFS 230
Waco CG-4A
Me-323
Me-323
FJ Engineer [EP]
Ar-196 [R]
Aux Cruiser
Jeep
Jeep [T]
Jeep [T]
Jeep
Jeep
Terrapin[a]
CAM Ship
Mk.II CC [C]
Cromwell CC [C]
Grant CC [C]
Stuart CC [C]
Staghound CC [C]
T-18M [A]
BT-5TU CC [C]
BT-7TU CC [C]
T-26V CC [C]
T-34TU CC [C]
L6/40 CC [C]
M40 CC [C]
Model 92 Yikae
Kurogane SC
M3 3 Inch GA [S]
AA-MG [AS]
M1A2 37mm AA
40M Nimrod GA [S]
Glider Infantry [EP]
C-54
Submarine [R]
20mm wz.38 [AS]
37mm M36 [S]
Sem Contraero [S]
3 Inch Portee
M17 Quad 50  [S]
SU-76 CS
sWS 3.7 FLAK43 
37mm Truck [S]
37mm F18 D [S]
128mm FlaK40
100mm B-34
20mm Portee [S]
65mm 65/17 [A]
65/17 Portee
SU-37
AA-MG [AS]
20mm GA [ASF]
Bf-109T [Y]
Graf Zeppelin CV
25mm GAZ GA [SF]
Fi-167 [Y]
75mm Mle 32
Ju-87C [Y]
88mm Grille 10
37mm Portee [S]
ISU-152 CS
HQ Bunker [SC]
Steyr ADGZ
Lince
SU-152 CS
SU-122 CS
M6A1
Do-24 [R]
LST
GAL.49 Hamilcar
Glider [EP]
M1A1 75mm M8 [PT]
Z.506
Walrus [R]
Sub Pen
Radar Station
Trawler
Rubber Boat[c]
Ocean Liner
Hospital Ship
HQ Detail [AC]
HQ Detail [AC]
HQ Detail [AC]
ACV-IP
HQ Detail [AC]
HQ Detail [AC]
Kurogane SC
HQ Detail [AC]
SS HQ Detail [AC]
HQ Detail [AC]
HQ Detail [AC]
HQ Detail [AC]
HQ Detail [AC]
HQ Detail [AC]
M40
HQ Detail [AC]
HQ Detail [AC]
HQ Detail [AC]
HQ Detail [AC]
HQ Detail [AC]
HQ Detail [AC]
HQ Detail [AC]
HQ Detail [AC]
HQ Detail [AC]
Morris 10
HQ Detail [AC]
HQ Detail [AC]
HQ Detail [AC]
HQ Detail [AC]
Linn T3
Ford T9E1
Tatra T-72
Morris AC
Alvis AC3D
Alvis AC3D
White M1918
Crossley AC
CTLS 4TA
T-16 Light
Vickers M1936
Vickers M1936
Browning MG [AS]
25pdr AT [S]
M43 105/25
RAF Field [P]
T-43
Regular [A]
T-44/100
T-44/85
IS-1
Bf-109F-4B
Bf-109G-2
Hospital
LN-401 [Y]
V-156F [Y]
SBC4 [Y]
D.373 [Y]
Buy Destroyer
Buy Battleship
Buy Carrier
Buy Cruiser
Buy Submarine
SdKfz 10/4 GA [ASF]
M13 GA [SF]
251/21 GA [ASF]
SdKfz 7/1 GA [SF]
SdKfz 6/2 GA [SF]
FlaKPz IV GA [SF]
251/17 GA [ASF]
SdKfz 10/4 GA [ASF]
SdKfz 7/1 GA [SF]
SdKfz 6/2 GA [SF]
8.8cm GA [AS]
75mm 75/27 AT
90mm 39/41
Disabled Train[rx]
Bicycle Recon
Mounted Scout
Scout
Spahi Scout
Scout
Motorcycle
Mounted Scout
Mounted Scout
Scout
Mounted Scout
Scout
Bicycle Recon
Scout
Scout
Light Cavalry
Motorcycle
Mounted Scout
Mounted Scout
Scout
P-38D
P-38H
P-38G
10.5cm FlaK Car[r]
76.2mm Car[r]
M5A1
Fort [S]
75mm AD Car[r]
40mm AA Car[r]
76mm Car[r]
76.2mm AT Car[r]
107mm Twin Car[r]
Heavy AA Car[r]
Sea Hurricane IB [Y]
Seafire IB [Y]
Seafire III [Y]
Seafire XV [Y]
Argus CV
Hosho CV
Langley CV
Junk
Tongan [A]
Commando [EP]
New Orleans HC
LST
Flagship
Type 95 Ha-Go
Vickers MG [AS]
AA-MG [AS]
Martin 139
Hawk II
Obstacle
Guards [A]
P-12E
Ford A
T166
SdKfz 251/1
V1 Installation
Grumman GE.23
Mustang
P-40E
Ford F30
P-47D (Mexican)
P-47D (Brazilian)
P.63.11
Vultee A-31
Spitfire II (Czech)
Spitfire IX (Czech)
Bren Carrier
Morris C8
Glider [P]
Submarine [R]
B6MG [R]
Hudson Mk.I
Blenheim
P-39D
Gladiator IIA (Greece) [Y]
Bren Carrier
Komintern
MG42 [AS]
6pdr Mk.II
Civilians
HMG [S]
Z.501 [R]
Submarine [R]
20mm AA Truck [S]
J7W1 Shinden
J7W2 Shinden
37mm Mk.I [A]
Burmese Tribes [m]
Guard Tower
Guard Tower
Guard Tower
Guard Tower
Guard Tower
Guard Tower
Guard Tower
Guard Tower
Guard Tower
Guard Tower
Guard Tower
Guard Tower
Guard Tower
Guard Tower
Guard Tower
Guard Tower
Guard Tower
Guard Tower
Guard Tower
Guard Tower
Guard Tower
Guard Tower
Guard Tower
Guard Tower
Guard Tower
Guard Tower
Guard Tower
Guard Tower
Guard Tower
Wreck
Red Cross
Bren Carrier
M3A1
Wellington
Battleship Support
Mob
Decoy Tank(x) [P]
Decoy Tank
Reef
Lake
M1917A1
M1A1 75mm M1 [A]
Supply Dump
Mules [m]
Mules [m]
Type 97 CC [C]
Mules [m]
Mules [m]
Mules [m]
Mules [m]
Guerrilla [m]
Naval Infantry [A]
Radar Bunker LR
Entrenched
Vickers MG [AS]
Elephant
Shinyo [R]
Sea Transport
Ku.8
Mounted
Mounted
Flat Car[r]
Rifle
Rifle
Mounted Rifles
Mounted Rifles
HQ Detail [AC]
Mounted
76mm Car[r]
Strong Point [S]
Bunker [S]
Type 94
Mounted Scout
LMG [S]
20mm AA Truck [S]
Type 93 MG [AS]
Type 1 47mm
Type 98 120mm [A]
Ki-32 [R]
Ki-51
Type 92 CC
Horse Teams
Horse Teams
M29
Ju-52
Skis [T]
Sea Transport
Do-24 [R]
G-11
GAL.49 Hamilcar
Espana BB
Alsedo Class DD
C-1 Class
HQ Detail [AC]
Crossley 1.5t
CX22
Mules [m]
Li-2
Type 97 81mm [A]
Tractor
PB[c] [R]
Landing Craft[c]
HQ Detail [AC]
Avro Anson
Entrenched
Horse Teams
Mounted
HQ Detail [AC]
Mounted
V2 Installation
Mules [m]
Dakota
Mounted
HQ Bunker [SC]
Airfield [#]
Obstacle
Airfield [#]
Blockhouse [S]
Fortress [S]
Minefield
HQ Bunker [SC]
Blockhouse [S]
105mm Bunker [S]
75mm Bunker [S]
Bunker [S]
Bunker [S]
HQ Building [SC]
Strong Point [S]
Strong Point [S]
Pillbox [S]
Pillbox [S]
Strong Point [S]
Airfield [#]
Bunker [S]
Bunker [S]
Building
MG Emplacement [S]
MG Emplacement [S]
MG Bunker [S]
Fortification [S]
Fort [S]
Fort [S]
Fort [S]
Village
Village
Village
Sniper [P]
Mortar Position [S]
MG Bunker [S]
MG Bunker [S]
Bunker [S]
Bunker [S]
Bunker [S]
Fortification [S]
Fortification [S]
Fortification [S]
Strong Point [S]
Strong Point [S]
Strong Point [S]
Strong Point [S]
Fortification [S]
Bunker [S]
Pillbox [S]
Pillbox [S]
Pillbox [S]
Pillbox [S]
Obstacle
Factory
75mm AT Bunker
Fortified [S]
Fortified [S]
Fortified [S]
Fortified [S]
Fortified [S]
Fortified [S]
Fortified [S]
Fortified [S]
Fortified [S]
Fortified [S]
Fortified [S]
Entrenched
Entrenched
Entrenched
Entrenched
Entrenched
Entrenched
Entrenched
Entrenched
Entrenched
Entrenched
Entrenched
Fortified [S]
General [RPC]
Scout
Commando [EP]
Infantry [A]
Entrenched
Entrenched
Fortified [S]
Fortified [S]
Scout
M2 .50cal MG [PST]
Light Mortar [A]
Light Mortar [A]
Engineer [EA]
HQ Detail [AC]
Factory
PB[c] [R]
Ju-52
Dhow
Pioneer
Horse Teams
Horse Teams
Wagon
Cavalry
Train[r]
Torpedo Battery
Parachute
76.2mm AT Car[r]
76.2mm AT Car[r]
75mm AT Car[r]
75mm AT Car[r]
107mm Twin Car[r]
107mm Twin Car[r]
105mm Car[r]
105mm Car[r]
105mm AD Car[r]
76mm Car[r]
76mm Car[r]
40mm AA Car[r]
40mm AA Car[r]
105mm AD Car[r]
76.2mm AA Car[r]
76.2mm AA Car[r]
Command Car[r] [C]
Command Car[r] [C]
Train[r]
Train[r]
43 Guards [A]
42 Engineer [EA]
42 Infantry [A]
42 Marine [A]
43 Mountain [Am]
Bicycle [T]
Mules [m]
BMW R-71 [T]
Bicycle [T]
Mules [m]
44 Engineer [EA]
44 Armored [A]
44 Regular [A]
Bridging [BA]
44 Regular [A]
44 Engineer [EA]
44 Engineer [EA]
44 Infantry [A]
44 Regular [A]
Schwarzlose MG [AS]
Mules [m]
43 Engineer [EA]
43 SS Engineer [EA]
43 Infantry [A]
43 SS Infantry [A]
43 FJ Infantry [P]
PzGrenadiere [A]
44 PzGrenadiere [A]
44 SS PzGrenadiere [A]
Paratrooper [P]
44 Engineer [EA]
44 Marine [A]
44 Commando [EP]
Mules [m]
4.2 Inch Mortar [A]
MG08 [AS]
Mules [m]
43 Infantry [A]
Bridging [BA]
43 Infantry [A]
43 Bersaglieri [AT]
43 Mountain [Am]
Naval Infantry [A]
Bridging [BA]
Mules [m]
ZB-53 MG [AS]
Entrenched
Fortified [S]
25 Regular [A]
43 Engineer [EA]
43 Engineer [EA]
43 Regular [A]
Mules [m]
Specnaz [EP]
41 Infantry [A]
HQ Detail [AC]
Entrenched
41 Engineer [EA]
44 Engineer [EA]
40 Mountain [Am]
Maxim MG [AS]
82mm BM-37 [A]
Li-2
44 Regular [A]
44 Engineer [EA]
44 Gurkhas [Am]
44 Marine [A]
Naval Infantry [A]
44 Commando [EP]
Camels
Shinyo [R]
Kamikaze/Giretsu [R]
Mules [m]
Mules [m]
Mules [m]
C-54
Waco CG-4A
Submarine [R]
4.2 Inch Mortar [A]
81mm Mortar [PT]
Submarine [R]
M1 8 Inch H
M12 155mm GMC
M1A1 155mm
Sunderland [R]
M43 8 Inch SP
Hydro Plane [R]
M13 GA [SF]
M15A1 GA [S]
M16 GA [SF]
Fortified [S]
LST
Dodge VC-1 CC [C]
M20 CC [C]
M24 CC [C]
M3 CC [C]
Alaska BC
Colorado BB
Iowa BB
Nevada BB
New Mexico BB
North Carolina BB
Pennsylvania BB
South Dakota BB
Tennessee BB
Baltimore HC
Brooklyn LC
Cleveland LC
New Orleans HC
Northampton HC
Bogue CVE
Essex CV
Independence CVL
Langley CV
Lexington CV
Sangamon CVE
Yorktown CV
Benson DD
D-4
Buckley DDE
Butler DDE
Evarts DDE
Farragut DD
Fletcher DD
LSM Rocket [E]
Mahan DD
MTB [R]
Sims DD
Wickes DD
Balao Class
Gato Class
S-Class
Dodge 3t
Dodge T9-K45
Ford G8T
Jeep [T]
M4 Tractor
Mack 7.5t
White 6x6
Horse Teams
DFS 230
Mules [m]
TB-3
Ka-Tsu[a]
MFP
Horse Teams
Crossley 1.5t
Horse Teams
Balloon
Submarine [R]
Staff Carriage
Staff Carriage
Staff Carriage
Staff Carriage
Staff Carriage
Crossley 1.5t
Crossley 1.5t
Staff Carriage
Bicycle [T]
Staff Carriage
Horse Teams
Staff Carriage
Fortified [S]
Entrenched
Staff Carriage
Staff Carriage
Mounted
Matador
Staff Carriage
Staff Carriage
AS.51 Horsa
C-54
Staff Carriage
Model 92 Yikae
Horse Teams
Staff Carriage
Staff Carriage
Staff Carriage
Staff Carriage
Staff Carriage
Light Horse
Light Horse
Light Horse
Light Horse
Light Horse
Light Horse
Horse Teams
Matador
Level Bomber [L]
Militia
Super Hero(a) [ERPCm]
44 Engineer [EA]
Type 3 MG [PS]
Camels
F633N
FJ HQ Detail [PC]
HQ Detail [AC]
Mules [m]
GJ HQ Detail [ACm]
GJ Engineer [EAm]
Maquis [m]
