Avranches
Villedieu-les-Poeles
Granville
St. Pair-sur-Mer
La Haye-Pesnel
Carolles
Sartilly
Brecey
See River
Baie du Mont St. Michel: OCEAN
Avranches
Selune River
Pontaubault
Mont St. Michel
Causeway
Couesnon River
Ducey
Pontorson
Pleine-Fougeres
St. James
KG Bacherer
353rd Inf. Div. Remnants
I/3rd "Deu"/2nd SS Pz Div.
II/3rd "Deu"/2nd SS Pz Div.
II/2/2nd SS Pz Div.
17th SS PzG Div. Remnants
LXXXIV Corps Remnants
68/-/6th Arm. Div.
15/-/6th Arm. Div.
69/-/6th Arm. Div.
35/-/4th Arm. Div.
37/-/4th Arm. Div.
8/-/4th Arm. Div.
10/-/4th Arm. Div.
51/-/4th Arm. Div.
53/-/4th Arm. Div.
9/-/6th Arm. Div.
44/-/6th Arm. Div.
50/-/6th Arm. Div.
128/-/6th Arm. Div.
22/-/4th Arm. Div.
