Failed diplomacy at Golan
8/15th
8/15th
8/15th
8/15th
115/15th
33/15th SPG
Fs Pz JgAbt
10th/155/21st
33/15th
33/15th
33/15th SPG
II/Fs ArtReg
708/21st
78/15th
200/21st
I/18/15th
II/25/15th
I/43/15th
1/115/15th
2/115/15th
3/115/15th
33/15th Eng
I/FJ Rgt3
II/FJ Rgt 5
FsLehr Bt1XI
2/Fs PiBt1
1/104/21st
2/104/21st
3/104/21st
200/21st Eng
1/GGFF
2/GGFF
14/136/GF
15/136/GF
16/136/GF
3 GF
1/GGFF 1
2/GGFF 2
GGFF1/136/GF
GGFF2/136/GF
125/GF
1st Guard 
1st Guard
L4
L4
L4
L4
L4
L4
3/GGFF
4/GGFF
190/90
