Grab that Oil: Palembang
HMS Exeter
ABDA force
Gull Force
Sparrow Force
1st Para
Ozawa DD
1st AT
1/1 AT
1st/I 
1st/II
Recon Company
1/3rd AA
23rd AA
2/3rd AA
3/3rd AA
4/3rd AA
1st/X
1st/XI
1st/XII
1st/XIV
2nd/IV
2nd/IX
2nd/XV
1st Cav
5th Cav
1 Landshurm
IV Landshurm
1st Engineer
1st Local
2nd Local
4th Local
Bangkelen Guard Batt
1st Air
1st Air
3rd Air
3/3 Air
4/3 Air
5/3 Air
27 RAAF
2/2 Ghurka
2nd Adhoc Rec
5 Field RAA
Arm Company
