Clearing the way: South Malaya
Princes of Wales
Repulse
Z force
243 RAF
100 RAF
34 RAF
453 RAAF
8 RAAF
488 RNZAF
2/4 RAA
2/10 RAA
2/15 RAA
8th AAA
8th AAA
8th AAA
8th AAA
2/18
2/19
2/20
2/26
2/29
2/30
2/10 Fd
2/12 Fd
2/6 Fld
1 Leisester
5/2 Punjab
4/19 Hyderabad
2 A & SH
15 Field Bombay
2/9 Jat
1/14 Punjab
3/16 Punjab
3 Field Bengal
122 Field RA
2/4 Machine Gun Regt
