Caging the Bear
Frankfurt
Strausberg
Furstenwalde
Berlin
Oder River
Warta River
Hauptgraben River
Alte Oder River
Oder-Spree Canal
Spree River
27/11G
45/11G
44/11G
40/11G
12/11
65/11
36/11
20/11
805/230
990/230
988/230
193/90G
274/90G
272/90G
192/87G
264/87G
262/87G
132/60G
185/60G
180/60G
902/248
905/248
899/248
Frankfurt
Pillgram
Hasenfeld
Mullrose
Beeskow
Seelow
Kustrin
Kunersdorf
Protzel
Strausberg
Spreenhagen
Furstenwalde
Waldsieversdorf
Garzin
Muncheberg
Eisenhuttenstadt
Sophienthal
555/104
750/104
25/4
104
104
415/104
414/104
413/104
24/4
489/4
22/4
10/4
37/4
35/4
8/4
12/3
27/3
185/3
9/3
8/3
55/G
153/G
2WG/G
32G/G
3/5G/G
2/5G/G
1/5G/G
Berlin
Berlin
Krummensee
Bernau
LAKE
LAKE
Aurith
FC
BC
248
248
249
248
5G
5G
5G
5G
USAAF
USAAF
11G
11G
5G
5G
32/5G
33/5G
235
236
240
241
RA
RA
30/11G
31/11G
32/11G
32/11G
45/5G
46/5G
RA
RA
RA
RA
RA
5G
11G
11G
5G
C/5G
RA
RA
RA
RA
RA
RA
RA
RA
RA
RA
