Ardennes-The Bulge
5/2 BA
8/2 BA
6/2 BA
212
9/2 BA
12/2 BA
18/2 BA
323
29 Armored
29 Armored
7/2 BA
21/2 BA
23/2 BA
343
29 Armored
29 Armored
101 Airborne
101 Airborne
C/29 Armored
29 Armored
13/2 BA
313
59
29 Armored
44/2 BA
46/2 BA
15
2CE/106 USA
13/99 USA
43
153
2/106 USA
51
56/106 USA
15/106 USA
R/7 Armored
USAAF
USAAF
US 7 armored
14/106 USA
70/106 USA
49
29 Armored
BC
BC
BC
FC
US 10 Armored
US 4 Armored
US 10 Armored
US 4 Armored
US 10 Armored
R/10 Armored
US 4 Armored
US 10 Armored
USAAF
USAAF
USAAF
USAAF
2/28 USA
4/28 USA
7/28 USA
10/28 USA
AT/3 Armored
AT/26 USA
1/99 USA
2/26 USA
29 Armored
29 Armored
US 7 Armored
US 7 Armored
US 7 Armored
US 4 Armored
711
US 7 Armored
USAAF
US 7 Armored
US 7 Armored
US 4 Armored
AT/29 Armored
Panzer Lehr
1SS Panzer
Panzer Lehr
KG Peiper
KG Peiper
K/Panzer Lehr
Panzer Lehr
9SS Panzer
Panzer Lehr
K/9 Panzer
2 Panzer
9 Panzer
9SS Panzer
2 Panzer
12SS Panzer
Panzer Lehr
2 Panzer
116 Panzer
KG Peiper
2 Panzer
2/12/12SS
25/12SS
12SS
12SS
116 Panzer
1SS Panzer
26 VK
26 VK
12SS Panzer
560 VK
26 VK
K/2 Panzer
116 Panzer
560 VK
KG Peiper
F/9 Panzer
560 VK
560 VK
560 VK
KG Peiper
212 VK
15 PZ GR
15 PZ GR
15 PZ GR
276 VK
352 VK
Panzer Lehr
116 Panzer
26 VK
26 VK
62 VK
9SS Panzer
19
277 VK 
12 VK
277 VK
12 VK
18 VK
18 VK
L1
Horst Adameit
Wolfgang Spate
Gunther Lutzow
Walter Schuck
Anton Hackl
Manfred Mossinger
Hans von Boltenstern
21
22
24
25
405
406
456
457
458
RD
RD
RD
RD
5 F
5 F
RD
469
470
HQ Panzer Lehr
HQ 9 Panzer
1023
1024
1025
1026
565
