Operation Checkmate
RAF
RAF
RAF
1A/14
R/14
14C
14C
14C
14C
14C
101 Airborne
101 Airborne
9 USMC
9 USMC
9 USMC
9 USMC
9 USMC
1 SF
2/1 SF
3/1 SF
5/1 SF
A/1 SF
2A/1 SF
1P/NAO
2/1P/NAO
3/1P/NAO
5/1P/NAO
6/1P/NAO
PK/NAO
134
178
210
211
222
K/NAO
2K/NAO
L2
2G/NAO
2/2G/NAO
4/2G/NAO
5/2G/NAO
1/2F/NAO
2/2F/NAO
3/2F/NAO
5/2F/NAO
112/NAO
111/NAO
100/NAO
11/2F/NAO
L2
L2
L2
