Kasserine Pass
Thala
Sbiba
1 Armored
2/1 Armored
3/1 Armored
4/1 Armored
5/1 Armored
6/1 Armored
8/1 Armored
10/1 Armored
11/1 Armored
12/1 Armored
15/1 Armored
AT 1 Armored
1/AT 34 Infantry
2/AT 34 Infantry
33 FA
1/33 FA
2/33 FA
3/33 FA
4/33 FA
Recon 1 Armored
2/34 Infantry
4/34 Infantry
5/34 Infantry
6/34 Infantry
7/34 Infantry
10/34 Infantry
11/34 Infantry
23/34 Infantry
24/34 Infantry
26/34 Infantry
27/34 Infantry
USAAF
USAAF
26 Armored
2/26 Armored
3/26 Armored
6/26 Armored
7/26 Armored
V Corps
3/V Corps
5/V Corps
RAF
RAF
DAK
DAK
DAK
1/21 Panzer
2/21 Panzer
3/21 Panzer
5/21 Panzer
2/10 Panzer
3/10 Panzer
4/10 Panzer
PK/21 Panzer
2PK/21 Panzer
1PK/10 Panzer
107
111
123
125
K/21 Panzer
K/DAK
L2
L2
L2
L2
1002
1034
1036
23/64
1050
25/64
26/64
10/90
I/90
L2
L2
L2
L2
