Leningrad
Oranienbaurn
Korowino
Ilino
Zasstrowe
Krasnoe Selo
Ropscha
Nastolo
Peterhof
Strelnia
Urizk
Krasnoe Selo
Puschkin
Sluzk
Krasnograd
Leningrad
Leningrad
Bol I Shora
84/220
51/220
106/152
414/125
657/125
466/125
404/109
602/109
381/109
248/86
284/86
169/86
167/85
103/85
59/85
9/72
133/72
14/72
1029/64
440/64
433/64
26/63
291/63
226/63
113/56
184/56
37/56
178/45
61/45
10/45
215
435/215
390/215
170
401/170
399/170
126
426/126
424/126
61
176/61
162/61
11
44/11
23/11
10
20/10
19/10
9
18/9
17/9
422/126
391/170
10
9
Pulkowo
Mischelowo
Pulkowo
Pulkowo
Witino
2/11
151/61
380/215
10
KK
KK
KK
KK
KK
9
10
61
L1
L1
L1
Krasnograd
Leningrad
Bol'Shaya Neva River
Malaya Nevka River
Malaya Neva River
Bol'Shaya Nevka River
