Volokolamsk
4G
4G
12/4G
K/4G
L/4G
M/4G
10/9G
9G
9G
XX/9G
4/9G
9G
9G
74
75
123
124
199
1201
1204
M231
M232
R/9G
R/4G
RA
RA
1 Sibersk
12/1 Sibersk
5/2 Astrakhan
6/2 Astrakhan
23 Georgia
2/23 Georgia
4/23 Georgia
10/23 Georgia
12/GA
34/4G
35/4G
4G
34/9G
9G
45/4G
CB/4G
CB/9G
46/4G
101/9G
102/9G
104/9G
111/9G
113/9G
RA
RA
RA
RA
4G
T/4G
9G
1222
133
RA
RA
RA
RA
RA
RA
RA
2/2 Astrakhan
13/1 Sibersk
4G
9G
9G
At/4G
AT/9G
2AT/9G
3AT/4G
1234
1235
1236
RA
RA
RA
RA
RA
RA
RA
RA
RA
RA
RA
RA
RA
114/9G
115/9G
120/9G
CE/4G
CE/9G
2CE/9G
4CE/4G
5CE/4G
