LPG 02 (Klisura)
Gela River
Vlore
Irminio River
Acate River
Scoglitti
Caltagirone
Tepelene
Ponte Olivo
Kelcyre
8/3 Julia Div
9/3 Julia Div
47/23 Ferrara Div
31/51 Siena Div
32/51 Siena Div
48/23 Ferrara Div
139/47 Bari Div
140/47 Bari Div
47/47 Bari Div
1st Albanian Legion
51/51 Siena Div
31/131 Centauro
131/131 Centauro
131/131 Centauro
214/23 Ferrara
805/FAA
815/FAA
23/RHAF
33/RHAF
161//RAI
160/RAI
163//RAI
Arty/Julia Div
Division HQ
Arty/Siena Div
CCNN/Bari Div
Division FOP
