LPG 11 (Bardia-Sollum)
-
Bardia
Sidi Azeiz
Fort Capuzzo
Sollum
Sidi Omar
Halfaya Pass
Pt 207
Faltenbacher Oasis
Cireaer Oasis
104 Regt
15 Regt (AK)
15 Regt
40 Regt
16 Regt
2 Bde (NZ)
11/4 Bde (SA)
MR/4 Bde (SA)
SAP/4 Bde (SA)
1/3 Bde (SA)
5 MI/3 Bde (SA)
5/3 Bde (SA)
7 Recce (SA)
8/6 Bde (SA)
3/2 (Coldstream) Guards
Divison HQ
4 Bde (SA)
3 Bde (SA)
801 FAA
3 RAAF
12 SAAF
