Windsor 1945
Maidenhead
Slough
Egham
Sandhurst
Woking
London
Southall
Island Barn Reservoir
Thames River
Virginia Water
Bray
Windsor
Walton upon Thames
Weybridge
Chertsey
Southall
2/1
1/1
1RHA/1
1/2
12RHA/2
4/2
5/2
6/2
2
156/52
155/52
157/52
52
Yiewsley
Camberley
Staines
AIRFIELD
Leatherhead
London
London
FC
FC
FC
BC
RAF
RAF
L
L
L
USAAF
RAF
RAF
Uxbridge
191
751
36
36
36
636
1P
504/82
505/82
325/82
82
RAF
RAF
RAF
RAF
RAF
RAF
RAF
RAF
RAF
RAF
RAF
RAF
RAF
RAF
Thames River
