Drive to the Sea
Esquay
Caen
1/100/21
2/100/21
125/21
192/21
21
21
155/21
305/21
2/915/352
731/711
744/711
1711/711
716
716
8/3
9/3
185/3
41/3
3/-/3
4/-/3
6/-/3
7/3C
8/3C
9/3C
12/3C
13/3C
14/3C
3/6
5/6
2C
27
4C/3
48/3C
47
231/50
56/50
69/50
151/50
1/50
2/50
3/50
8
Sword Beach
Sword Beach
Juno Beach
Gold Beach
Ouistreham
Franceville Plage
Cabourg
Troarn
Brettville sur Laize
Bourgue'lous
Cormelles
Caen
Lion sur Mer
Luc sur Mer
Basly
Courseulles sur Mer
Arromanches les Bains
Bayeux
Port en Bessin
Colleville sur Mer
St Laurent sur Mer
Balleroy
Caumont
Tilly sur Seulles
Carpiquet
St Manvieu
Brettville l'Orgueilleuse
Aunay sur Oden
Amay sur Orne
Avenay
Bully
Pegasus Bridge
1/736
2/736
3/736
2/726
Verson
Caen
Thury Harcourt
Thury Harcourt
Villers Bocage
FC
BC
BC
FC
FC
Vimont
Orne River
Aure River
Drome River
Seulles River
Odon River
Dives River
Hawkins
Haida
Huron
