Krakow
Vistula River
Krakow
SS[Germania]/[VIII]
5 Bde./5 Pz/[VIII]
5 Bde./5 Pz/[VIII]
8 Bde./5 Pz/[VIII]
8 Bde./5 Pz/[VIII]
116 AR/5 Pz/[VIII]
8 Rec./5 Pz/[VIII]
28 R/8 ID/[VIII]
38 R/8 ID/[VIII]
84 R/8 ID/[VIII]
8 AR/8 ID/[VIII]
131 R/44 ID/[XVII]
132 R/44 ID/[XVII]
134 R/44 ID/[XVII]
96 AR/44 ID/[XVII]
130 R/45 ID/[XVII]
133 R/45 ID/[XVII]
135 R/45 ID/[XVII]
98 AR/45 ID/[XVII]
19 R/7 ID/[XVII]
61 R/7 ID/[XVII]
62 R/7 ID/[XVII]
7 AR/7 ID/[XVII]
7 R/28 ID/[VIII]
49 R/28 ID/[VIII]
83 R/28 ID/[VIII]
28 AR/28 ID/[VIII]
51 Btn./[Krakow]
51 Btn./[Krakow]
11 R/23 ID/[Krakow]
73 R/23 ID/[Krakow]
75 R/23 ID/[Krakow]
23 Lt.AR/23 ID/[Krakow]
23 Hvy.Btn./23 ID/[Krakow]
95 Hvy.Btn./23 ID/[Krakow]
23 E.Btn./23 ID/[Krakow]
53 MG.Btn./23 ID/[Krakow]
23 AA/23 ID/[Krakow]
23 KS/23 ID/[Krakow]
201 R/55 RID/[Krakow]
203 R/55 RID/[Krakow]
204 R/55 RID/[Krakow]
65 Lt./55 RID/[Krakow]
64 Hvy./55 RID/[Krakow]
75 E/55 RID/[Krakow]
1 Mnt.Bde./[Krakow]
1 Mnt.Bde./[Krakow]
1 Mnt.Bde./[Krakow]
1 Mnt.Bde./[Krakow]
61 Tk/1 Mnt.Bde./[Krakow]
10 Mech.D./[Krakow]
10 Mech.D./[Krakow]
10 Mech.D./[Krakow]
21 ID/[Krakow]
21 ID/[Krakow]
21 ID/[Krakow]
Lt./21 ID/[Krakow]
Hvy./21 ID/[Krakow]
6 ID/[Krakow]
6 ID/[Krakow]
6 ID/[Krakow]
/6 ID/[Krakow]
III
53/23 ID/[Krakow]
2 Bde./2 Pz.Div./[XVIII]
2 Bde./2 Pz.Div./[XVIII]
74 AR/2 Pz.Div./[XVIII]
2 Bde./2 Pz.Div./[XVIII]
2 Bde./2 Pz.Div./[XVIII]
[L4]
[Luftflotte 4]
To Katowice
Supply Point
522 Br.Btn/-/[VIII]
Grz.Schzt.Kdr 3/[VIII]
Supply Point
[L4]
